[
  {
    "storeID":"1",
    "storeName":"Steam"
  },
  {
    "storeID":"2",
    "storeName":"Gamer's Gate"
  },
  {
    "storeID":"3",
    "storeName":"GreenManGaming"
  },
  {
    "storeID":"4",
    "storeName":"Amazon"
  },
  {
    "storeID":"13",
    "storeName":"Uplay"
  },
  {
    "storeID":"17",
    "storeName":"Games Republic"
  },
  {
    "storeID":"5",
    "storeName":"GameStop"
  },
  {
    "storeID":"6",
    "storeName":"Direct2Drive"
  },
  {
    "storeID":"7",
    "storeName":"GoG"
  },
  {
    "storeID":"8",
    "storeName":"Origin"
  },
  {
    "storeID":"12",
    "storeName":"Desura"
  },
  {
    "storeID":"9",
    "storeName":"Get Games"
  },
  {
    "storeID":"11",
    "storeName":"Humble Store"
  },
  {
    "storeID":"10",
    "storeName":"Shiny Loot"
  },
  {
    "storeID":"14",
    "storeName":"IndieGameStand"
  },
  {
    "storeID":"15",
    "storeName":"Bundle Stars"
  },
  {
    "storeID":"16",
    "storeName":"Gamesrocket"
  }
]